{
  "test_content": {
    "slides_per_game": 5,
    "slides": [
      {
        "slide_id": 1,
        "slide_type": 9,
        "slide_game": {
          "card_face": [
            {
              "image": "<img url>",
              "text": "<Qn text>"
            }
          ],
          "display_option": 1,
          "shuffle_options": true,
          "options": [
            {
              "content": "abc",
              "is_correct": true
            },
            {
              "content": "pqr",
              "is_correct": false
            }
          ]
        }
      }
    ]
  }
}
